﻿Rat,Group,Box,LYOrder,Patent,VehBin1,VehBin2,VehBin3,VehBin4,VehBin5,VehBin6,VehBin7,VehBin8,VehBin9,VehBin10,VehBin11,VehBin12,VehSum,T0.3Bin1,T0.3Bin2,T0.3Bin3,T0.3Bin4,T0.3Bin5,T0.3Bin6,T0.3Bin7,T0.3Bin8,T0.3Bin9,T0.3Bin10,T0.3Bin11,T0.3Bin12,T0.3Sum,T1.0Bin1,T1.0Bin2,T1.0Bin3,T1.0Bin4,T1.0Bin5,T1.0Bin6,T1.0Bin7,T1.0Bin8,T1.0Bin9,T1.0Bin10,T1.0Bin11,T1.0Bin12,T1.0Sum,filter_$
73,IC,1,"1, 0, 0.3",good,2,0,0,5,0,2,1,2,2,3,4,2,23,7,2,1,0,3,0,2,7,0,12,1,1,36,3,1,0,0,0,0,0,0,3,0,0,0,7,Selected
74,EC,2,"0, 0.3, 1.0",good,0,0,0,0,0,1,8,11,12,2,3,3,40,0,0,24,4,4,2,0,3,2,3,7,0,49,0,0,1,2,1,2,1,2,0,4,2,0,15,Selected
75,IC,5,"1, 0.3, 0",good,3,0,0,0,1,0,0,0,0,0,0,0,4,7,3,2,1,3,3,4,3,1,4,1,0,32,8,2,1,9,7,6,5,1,6,4,5,0,54,Selected
76,EC,6,"0, 1, 0.3",good,13,7,4,5,5,9,9,4,2,9,6,1,74,13,12,18,12,9,13,10,9,10,4,6,3,119,14,13,6,4,11,12,14,8,7,5,1,6,101,Selected
77,IC,1,"0, 0.3, 1.0",good,1,3,0,1,1,6,2,4,3,5,8,6,40,3,1,4,4,4,0,4,5,4,5,0,0,34,1,0,0,2,0,1,0,0,3,6,0,1,14,Selected
78,EC,2,"0.3, 0, 1.0",good,0,1,4,0,6,7,5,11,11,4,19,6,74,1,0,0,0,0,0,0,0,0,0,0,0,1,3,10,10,10,3,9,4,7,3,1,4,4,68,Selected
79,IC,5,"1, 0, 0.3",good,28,20,6,8,7,9,8,10,14,14,4,7,135,24,15,0,7,3,3,6,8,9,14,7,7,103,26,15,14,12,6,10,3,12,7,14,8,6,133,Selected
81,IC,1,"0.3, 0, 1.0",good,28,12,9,16,4,2,0,0,7,3,13,2,96,24,14,9,6,7,7,5,8,14,7,6,7,114,7,0,0,0,0,0,0,0,4,0,0,0,11,Selected
82,EC,2,"1, 0, 0.3",good,6,1,6,0,5,3,0,0,1,1,9,2,34,7,9,1,5,0,10,2,12,0,3,6,2,57,22,15,4,0,0,3,8,9,0,1,1,6,69,Selected
83,IC,5,"0.3, 1.0, 0",good,16,6,2,1,3,7,11,3,9,3,1,0,62,13,16,5,5,1,4,4,12,8,9,15,8,100,0,0,0,1,1,3,0,0,3,0,4,0,12,Selected
84,EC,6,"1, 0.3, 0",good,2,2,2,1,2,3,1,0,1,1,5,1,21,1,0,0,0,0,0,0,0,0,0,0,0,1,3,0,0,0,2,5,3,2,0,0,1,0,16,Selected
85,IC,7,"0, 1, 0.3",good,9,14,9,7,6,7,12,8,7,9,15,10,113,26,17,6,2,1,1,2,1,3,8,3,14,84,29,12,12,12,4,3,5,6,4,8,3,1,99,Selected
86,EC,8,"0, 0.3, 1.0",good,1,0,1,2,0,0,0,0,1,0,0,1,6,0,0,0,0,0,0,0,0,0,0,0,0,0,1,0,0,0,0,0,0,0,0,0,0,0,1,Selected
87,IC,1,"1, 0.3, 0",good,13,6,3,3,5,16,2,16,3,6,6,3,82,20,11,3,2,3,0,3,2,0,7,2,0,53,8,5,0,0,0,0,0,0,0,0,6,0,19,Selected
88,EC,2,"0, 1, 0.3",good,10,5,1,0,0,0,0,3,0,7,0,1,27,0,1,0,0,0,0,0,0,0,0,0,0,1,2,0,0,0,0,0,0,0,0,0,0,0,2,Selected
89,IC,3,"0, 0.3, 1.0",good,14,11,6,8,10,8,11,8,4,9,9,9,107,32,13,1,3,1,1,4,2,4,25,8,13,107,20,8,5,6,9,6,14,8,3,11,4,19,113,Selected
90,EC,4,"0.3, 0, 1.0",good,35,44,36,51,50,67,88,90,85,66,57,68,737,32,37,33,33,15,22,36,36,63,63,92,106,568,32,22,29,36,50,59,51,50,50,34,52,32,497,Not Selected
91,IC,5,"0, 1, 0.3",good,20,4,7,3,0,3,5,8,5,5,8,5,73,7,6,4,7,8,6,12,10,9,8,9,8,94,10,4,8,6,0,1,6,1,9,4,12,8,69,Selected
92,EC,6,"0.3, 1.0, 0",good,0,1,1,1,5,3,0,1,1,1,0,1,15,9,6,5,1,3,3,1,2,5,0,3,1,39,0,0,0,0,0,0,0,0,0,0,0,0,0,Selected
93,SC,3,"0.3, 0, 1.0",slow,5,13,13,10,7,7,4,1,2,2,5,2,71,3,5,10,6,14,4,4,1,0,3,0,3,53,0,3,4,4,7,2,2,1,4,3,4,4,38,Selected
94,SC,4,"0.3, 1.0, 0",good,7,6,2,3,4,2,0,1,3,1,6,7,42,10,9,9,14,3,10,4,10,7,9,7,3,95,3,1,5,4,0,5,1,2,2,10,1,0,34,Selected
95,SC,7,"1, 0.3, 0",good,7,4,6,3,6,12,7,13,12,6,9,5,90,5,0,13,5,6,3,2,4,8,2,1,9,58,3,1,3,1,1,5,3,5,1,7,5,10,45,Selected
96,SC,8,"1, 0, 0.3",good,24,23,16,6,4,8,15,7,15,7,17,10,152,28,8,13,9,11,1,13,12,13,20,17,3,148,13,12,9,1,4,0,17,11,6,14,10,3,100,Selected
97,SC,3,"0, 0.3, 1.0",good,8,6,10,6,3,10,3,4,8,14,8,13,93,10,11,15,9,9,4,12,4,13,7,5,8,107,18,8,13,7,5,11,6,5,14,17,17,10,131,Selected
98,SC,4,"0, 1, 0.3",good,2,2,3,3,0,1,0,2,4,1,2,0,20,9,7,5,2,1,4,1,9,7,5,5,3,58,1,2,0,1,2,1,6,2,3,2,3,2,25,Selected
99,SC,7,"0.3, 0, 1.0",good,19,8,9,4,4,9,6,10,12,3,10,0,94,6,7,6,0,3,5,7,4,3,4,5,17,67,10,2,1,3,2,3,4,8,1,4,5,4,47,Selected
100,SC,8,"0.3, 1.0, 0",good,34,26,7,4,8,5,10,32,12,18,15,13,184,24,10,6,12,12,4,6,3,14,14,21,12,138,15,12,14,11,9,8,11,2,10,10,13,3,118,Selected
101,SC,3,"1, 0, 0.3",good,13,12,12,8,11,4,2,23,5,16,18,1,125,22,24,14,8,6,4,7,9,9,12,2,2,119,4,2,0,2,0,1,0,0,1,4,2,2,18,Selected
102,SC,4,"1, 0.3, 0",good,9,9,6,1,0,3,6,5,2,8,6,5,60,14,18,10,2,0,4,7,6,3,5,2,1,72,13,5,5,2,3,4,2,3,8,3,2,7,57,Selected
